{
  "project_info": {
    "project_number": "588917526976",
    "firebase_url": "https://office-food-app.firebaseio.com",
    "project_id": "office-food-app",
    "storage_bucket": "office-food-app.appspot.com"
  },
  "client": [
    {
      "client_info": {
        "mobilesdk_app_id": "1:588917526976:android:afc2a9753e282a65e83825",
        "android_client_info": {
          "package_name": "com.example.foodrating"
        }
      },
      "oauth_client": [
        {
          "client_id": "588917526976-hcc3gqjfc4j7hi0oklcamtsgk2i8bhlc.apps.googleusercontent.com",
          "client_type": 1,
          "android_info": {
            "package_name": "com.example.foodrating",
            "certificate_hash": "b6b2d3920784fdc161a4dcf07ad2a88d52001fcd"
          }
        },
        {
          "client_id": "588917526976-r3e65lba6d68pe3t3r0anrdq8knn50qe.apps.googleusercontent.com",
          "client_type": 3
        }
      ],
      "api_key": [
        {
          "current_key": "AIzaSyAyfN5UBsFWtSgky5Pp_U73CnlkVC5vWc8"
        }
      ],
      "services": {
        "appinvite_service": {
          "other_platform_oauth_client": [
            {
              "client_id": "588917526976-r3e65lba6d68pe3t3r0anrdq8knn50qe.apps.googleusercontent.com",
              "client_type": 3
            }
          ]
        }
      }
    }
  ],
  "configuration_version": "1"
}